{
  "project_info": {
    "project_number": "957564908972",
    "project_id": "runner-11-ff3ae",
    "storage_bucket": "runner-11-ff3ae.appspot.com"
  },
  "client": [
    {
      "client_info": {
        "mobilesdk_app_id": "1:957564908972:android:9362fde94e07f70b407609",
        "android_client_info": {
          "package_name": "com.rg.mchampgold"
        }
      },
      "oauth_client": [
        {
          "client_id": "957564908972-lm6eqggtppd19u4m8rjruasc8srdk7se.apps.googleusercontent.com",
          "client_type": 1,
          "android_info": {
            "package_name": "com.rg.mchampgold",
            "certificate_hash": "2a56371b818a8fc1ae347277c119f7521879629a"
          }
        },
        {
          "client_id": "957564908972-vfo4u1gd1dnlasc7r5b2ue6b24mht8fk.apps.googleusercontent.com",
          "client_type": 3
        }
      ],
      "api_key": [
        {
          "current_key": "AIzaSyDG2Ds_p76qQWEr9HGk_d9iQ1RLPNm1u34"
        }
      ],
      "services": {
        "appinvite_service": {
          "other_platform_oauth_client": [
            {
              "client_id": "957564908972-vfo4u1gd1dnlasc7r5b2ue6b24mht8fk.apps.googleusercontent.com",
              "client_type": 3
            }
          ]
        }
      }
    },
    {
      "client_info": {
        "mobilesdk_app_id": "1:957564908972:android:790247b57d33efa9407609",
        "android_client_info": {
          "package_name": "com.rg.mchampgold.dev"
        }
      },
      "oauth_client": [
        {
          "client_id": "957564908972-od02lv200rdfh370n21rjqumma3bc2kf.apps.googleusercontent.com",
          "client_type": 1,
          "android_info": {
            "package_name": "com.rg.mchampgold.dev",
            "certificate_hash": "2a56371b818a8fc1ae347277c119f7521879629a"
          }
        },
        {
          "client_id": "957564908972-vfo4u1gd1dnlasc7r5b2ue6b24mht8fk.apps.googleusercontent.com",
          "client_type": 3
        }
      ],
      "api_key": [
        {
          "current_key": "AIzaSyDG2Ds_p76qQWEr9HGk_d9iQ1RLPNm1u34"
        }
      ],
      "services": {
        "appinvite_service": {
          "other_platform_oauth_client": [
            {
              "client_id": "957564908972-vfo4u1gd1dnlasc7r5b2ue6b24mht8fk.apps.googleusercontent.com",
              "client_type": 3
            }
          ]
        }
      }
    }
  ],
  "configuration_version": "1"
}